^C:\USERS\JONATHAN_MOORE\DESKTOP\MBF-64483\MBF\MBF.TEMPLATEWIZARD\OPERATIONSSCREEN.RESX
^C:\USERS\JONATHAN_MOORE\DESKTOP\MBF-64483\MBF\MBF.TEMPLATEWIZARD\PROPERTIES\RESOURCES.RESX
^C:\USERS\JONATHAN_MOORE\DESKTOP\MBF-64483\MBF\MBF.TEMPLATEWIZARD\WELCOMESCREEN.RESX
^C:\USERS\JONATHAN_MOORE\DESKTOP\MBF-64483\MBF\MBF.TEMPLATEWIZARD\WIZARDFORM.RESX
C:\WINDOWS\ASSEMBLY\PUBPOL49.DAT
C:\WINDOWS\MICROSOFT.NET\ASSEMBLY\GAC_MSIL\MICROSOFT.BUILD.TASKS.V4.0\V4.0_4.0.0.0__B03F5F7F11D50A3A\MICROSOFT.BUILD.TASKS.V4.0.DLL
