^C:\USERS\JONATHAN_MOORE\DESKTOP\MBF-64483\MBF\MBF.TEMPLATEWIZARD\OPERATIONSSCREEN.RESX|C:\USERS\JONATHAN_MOORE\DESKTOP\MBF-64483\MBF\MBF.TEMPLATEWIZARD\PROPERTIES\RESOURCES.RESX|C:\USERS\JONATHAN_MOORE\DESKTOP\MBF-64483\MBF\MBF.TEMPLATEWIZARD\WELCOMESCREEN.RESX|C:\USERS\JONATHAN_MOORE\DESKTOP\MBF-64483\MBF\MBF.TEMPLATEWIZARD\WIZARDFORM.RESX
C:\USERS\JONATHAN_MOORE\DESKTOP\MBF-64483\MBF\MBF.TEMPLATEWIZARD\OBJ\DEBUG\MBF.TEMPLATEWIZARD.OPERATIONSSCREEN.RESOURCES
C:\USERS\JONATHAN_MOORE\DESKTOP\MBF-64483\MBF\MBF.TEMPLATEWIZARD\OBJ\DEBUG\MBF.TEMPLATEWIZARD.PROPERTIES.RESOURCES.RESOURCES
C:\USERS\JONATHAN_MOORE\DESKTOP\MBF-64483\MBF\MBF.TEMPLATEWIZARD\OBJ\DEBUG\MBF.TEMPLATEWIZARD.WELCOMESCREEN.RESOURCES
C:\USERS\JONATHAN_MOORE\DESKTOP\MBF-64483\MBF\MBF.TEMPLATEWIZARD\OBJ\DEBUG\MBF.TEMPLATEWIZARD.WIZARDFORM.RESOURCES
