^C:\USERS\JONATHAN_MOORE\DESKTOP\MBF-64483\MBF\MBF\ALGORITHMS\ASSEMBLY\CLONELIBRARY\RESOURCES\LIBRARYRESOURCE.RESX
C:\WINDOWS\ASSEMBLY\PUBPOL49.DAT
C:\WINDOWS\MICROSOFT.NET\ASSEMBLY\GAC_MSIL\MICROSOFT.BUILD.TASKS.V4.0\V4.0_4.0.0.0__B03F5F7F11D50A3A\MICROSOFT.BUILD.TASKS.V4.0.DLL
C:\USERS\JONATHAN_MOORE\DESKTOP\MBF-64483\MBF\MBF\ALGORITHMS\ASSEMBLY\CLONELIBRARY\RESOURCES\CLONELIBRARY\LIBRARY.TXT
^C:\USERS\JONATHAN_MOORE\DESKTOP\MBF-64483\MBF\MBF\PROPERTIES\RESOURCE.RESX
^C:\USERS\JONATHAN_MOORE\DESKTOP\MBF-64483\MBF\MBF\SIMILARITYMATRICES\RESOURCES\SIMILARITYMATRIXRESOURCES.RESX
C:\USERS\JONATHAN_MOORE\DESKTOP\MBF-64483\MBF\MBF\SIMILARITYMATRICES\RESOURCES\SIMILARITYMATRICES\AMBIGUOUSDNA.TXT
C:\USERS\JONATHAN_MOORE\DESKTOP\MBF-64483\MBF\MBF\SIMILARITYMATRICES\RESOURCES\SIMILARITYMATRICES\AMBIGUOUSRNA.TXT
C:\USERS\JONATHAN_MOORE\DESKTOP\MBF-64483\MBF\MBF\SIMILARITYMATRICES\RESOURCES\SIMILARITYMATRICES\BLOSUM45.TXT
C:\USERS\JONATHAN_MOORE\DESKTOP\MBF-64483\MBF\MBF\SIMILARITYMATRICES\RESOURCES\SIMILARITYMATRICES\BLOSUM50.TXT
C:\USERS\JONATHAN_MOORE\DESKTOP\MBF-64483\MBF\MBF\SIMILARITYMATRICES\RESOURCES\SIMILARITYMATRICES\BLOSUM62.TXT
C:\USERS\JONATHAN_MOORE\DESKTOP\MBF-64483\MBF\MBF\SIMILARITYMATRICES\RESOURCES\SIMILARITYMATRICES\BLOSUM80.TXT
C:\USERS\JONATHAN_MOORE\DESKTOP\MBF-64483\MBF\MBF\SIMILARITYMATRICES\RESOURCES\SIMILARITYMATRICES\BLOSUM90.TXT
C:\USERS\JONATHAN_MOORE\DESKTOP\MBF-64483\MBF\MBF\SIMILARITYMATRICES\RESOURCES\SIMILARITYMATRICES\DIAGONALSCOREMATRIX.TXT
C:\USERS\JONATHAN_MOORE\DESKTOP\MBF-64483\MBF\MBF\SIMILARITYMATRICES\RESOURCES\SIMILARITYMATRICES\PAM250.TXT
C:\USERS\JONATHAN_MOORE\DESKTOP\MBF-64483\MBF\MBF\SIMILARITYMATRICES\RESOURCES\SIMILARITYMATRICES\PAM30.TXT
C:\USERS\JONATHAN_MOORE\DESKTOP\MBF-64483\MBF\MBF\SIMILARITYMATRICES\RESOURCES\SIMILARITYMATRICES\PAM70.TXT
