﻿(((((((((((((((((((((((((((((((((SK215:0.014448,A011:0.005998):
0.072939,2722:0.033807):0.012879,PS284:0.075568):0.007615,(SK104:0.027358,PS402:0.062806):0.006079):
0.006891,(((SK182:0.064361,SK161:0.048496):0.008008,(SK011:0.037788,PS441:0.023495):0.007750):0.000000,
(1050:0.024130,(J142M:0.015950,PS111:0.049639):0.007210):0.007719):0.002340):0.003337,((SK072:0.043027,A1214:0.052522):0.011252,
(((((SK175:0.074476,2004:0.030919):0.009692,(PS126:0.057823,2634:0.076201):0.013013):0.006763,((PS181:0.062578,PS074:0.033226):0.004697,PS076:0.065100)
:0.011030):0.003033,((((SK071:0.099492,(SK013:0.079383,PS365:0.096455):0.013540):0.006396,(985:0.023819,2245:0.024826):0.046502):0.004907,(PS191:0.072400,
(PS156:0.092170,PS121:0.054152):0.012751):0.009672):0.003975,(SK243:0.060777,PS206:0.072792):0.017381):0.005614):0.003712,((PS217:0.037273,PS086:0.044370)
:0.011207,1093:0.058356):0.008058):0.002033):0.000000):0.001556,((((SK118:0.039999,SK040:0.044189):0.040275,(KEH123:0.024457,J38M:0.019283):0.012298):0.012017,
(PS400:0.023517,A1335:0.035558):0.005764):0.005008,((((PS150:0.074309,2002:0.033411):0.014264,((PS117:0.040023,(1048:0.036742,1007:0.037162):0.011755):0.005239,
(J143M:0.000000,J143C:0.022510):0.056906):0.004067):0.001735,((PS205:0.000000,PS139:0.003413):0.017386,PS190:0.001723):0.013917):0.001744,SK041:0.028024):0.007191)
:0.001812):0.003549,(((((SK190:0.039893,2256:0.029407):0.004832,(PS069:0.027571,1042:0.023165):0.017007):0.004768,SK110:0.063001):0.005500,((((SK151:0.050550,
(PS137:0.046020,2110:0.023704):0.029219):0.002074,((SK094:0.049664,(PS148:0.039110,2637:0.041327):0.007525):0.011380,KEH117:0.052010):0.005446):0.002303,
((1138:0.030943,1192:0.057372):0.007863,(SK139:0.053228,(PS141:0.021402,1210:0.028233):0.008865):0.019113):0.003559):0.001798,((SK062:0.047806,2720:0.038863)
:0.009875,2732:0.067067):0.007806):0.000000):0.003490,(((J120M:0.030486,J120C:0.039029):0.025507,(SK127:0.072821,PS142:0.035759):0.009630):0.002011,PS122:0.039910)
:0.006436):0.004266):0.000000,(((((SK154:0.051475,PS384:0.031259):0.008438,PS143:0.043377):0.005067,((PS398:0.043324,2514:0.027142):0.011072,(((PS081:0.043443,
(SK155:0.050759,PS162:0.041193):0.010751):0.002299,PS023:0.099771):0.001734,J125C:0.060034):0.007119):0.000000):0.000000,((((PS377:0.035121,1197:0.032273):0.018256,
((((SK244:0.077528,994:0.049120):0.015047,PS027:0.053997):0.008985,((2731:0.033649,PS172:0.051887):0.006518,(SK178:0.075807,(PS358:0.022397,PS104:0.029825):0.003554):
0.004890):0.001133):0.012800,((1097:0.035993,(KEH167:0.025776,A1186:0.039833):0.015273):0.001422,(PS187:0.042131,PS186:0.053515):0.011337):0.002407):0.001663):0.001166,
((SK079:0.024638,1013:0.029903):0.010665,((((PS077:0.051541,PS420:0.039576):0.002371,SK246:0.062279):0.004181,(SK185:0.080440,2688:0.029807):0.016231):0.005718,
(PS140:0.042106,((PS373:0.028785,PS119:0.054607):0.016033,(J54M:0.034777,A1349:0.036200):0.005255):0.000000):0.006373):0.002053):0.004187):0.004004,
((((A654:0.113695,1186:0.061344):0.006048,1049:0.042733):0.004873,((PS403:0.048401,1020:0.032790):0.004996,((SK009:0.054307,PS138:0.041488):0.018834,((1189:0.031884,
(PS418:0.060771,1133:0.032411):0.019502):0.004152,(PS165:0.077028,1185:0.034765):0.013460):0.002291):0.002124):0.007836):0.000000,((1228:0.043820,
(((PS401:0.030833,1180:0.034181):0.010599,(PS107:0.028750,J95F:0.030661):0.003858):0.004971,(SK200:0.048268,(((SK089:0.040124,PS042:0.034472):0.007561,((PS412:0.090146,1225:0.029966):0.011586,2590:0.019643):0.000000):0.001392,(PS182:0.066914,PS161:0.031221):0.007579):0.005294):0.000000):0.001758):0.001530,(1222:0.048246,((2592:0.028158,PS013:0.047987):0.006194,(PS129:0.064618,PS034:0.060492):0.002010):0.004756):0.005388):0.001924):0.001685):0.001740):0.001798,(((((SK138:0.058128,(PS216:0.036566,A774:0.040067):0.009152):0.007019,(2134:0.036411,1217:0.037975):0.004723):0.006468,((PS175:0.034244,PS133:0.052701):0.013016,((PS155:0.033229,(PS425:0.032371,1025:0.038745):0.006800):0.003436,272:0.040047):0.003267):0.006465):0.001408,(((J100C:0.041088,(((2633:0.052623,((2497:0.027189,(PS437:0.049232,2309:0.004621):0.004456):0.012670,(SK116:0.056603,PS014:0.042225):0.011921):0.001477):0.003674,(KEH087:0.035641,2038:0.056260):0.004136):0.001744,(((SK131:0.000000,SK13:0.000000):0.083274,SK120:0.060006):0.007873,(PS363:0.046913,((997:0.025629,1168:0.032695):0.008042,(A280:0.034191,SK199:0.082851):0.004696):0.003695):0.002372):0.002035):0.005302):0.011420,(SK183:0.048244,1060:0.039677):0.006674):0.002990,(((SK010:0.043370,((PS424:0.020534,PS025:0.054026):0.011017,1131:0.043242):0.002141):0.004391,((SK023:0.052823,PS033:0.048239):0.004783,PS457:0.042192):0.005322):0.001239,(SK180:0.043435,SK168:0.061870):0.010471):0.005643):0.001623):0.000000,(((2015:0.055780,PS417:0.061341):0.012337,SK212:0.076251):0.003460,(((PS212:0.059397,(((A010:0.050839,1051:0.023990):0.003059,PS395:0.037693):0.004322,((((PS168:0.077469,1162:0.046917):0.011641,PS022:0.081461):0.008210,((SK048:0.088880,SK042:0.004728):0.071245,(PS204:0.039754,PS179:0.075496):0.001904):0.009241):0.004734,(1231:0.045600,(((PS071:0.034540,(2650:0.027887,1204:0.024487):0.000000):0.004294,(((SK020:0.055754,PS170:0.038902):0.007557,2711:0.032223):0.002872,(SK061:0.053760,A1348:0.064180):0.014067):0.001550):0.003415,(PS088:0.028677,(J3M:0.015405,J3C:0.016278):0.014596):0.003164):0.005160):0.007977):0.005947):0.001683):0.003507,J123M:0.021970):0.000000,(SK014:0.071663,PS021:0.050498):0.004036):0.001861):0.002305):0.001711):0.003342):0.003404,(((PS017:0.060520,A105:0.039636):0.015061,((SK035:0.055443,1058:0.016331):0.014782,(1063:0.054838,1029:0.051850):0.006544):0.002969):0.004923,((PS188:0.034005,1176:0.044700):0.011180,(PS118:0.021951,1122:0.054936):0.007790):0.000000):0.002170):0.000000,((((SK146:0.048956,998:0.016747):0.009131,((PS210:0.051966,PS199:0.061668):0.008019,PS151:0.038277):0.005372):0.002306,(((PS177:0.001707,PS109:0.000000):0.045540,1134:0.063957):0.018333,(PS097:0.079475,(1090:0.002767,1019:0.007747):0.021852):0.015118):0.005056):0.003677,((((SK208:0.022031,2014:0.043037):0.013779,(((SK147:0.072397,PS066:0.037236):0.007731,PS064:0.042016):0.001576,PS396:0.049605):0.000000):0.004045,((((SK145:0.073018,SK097:0.053434):0.008594,(PS110:0.046833,PS099:0.060009):0.020403):0.007013,(SK076:0.067864,(A1336:0.027932,1157:0.043203):0.017560):0.005119):0.007662,(((PS211:0.043653,PS026:0.070473):0.008761,PS120:0.054082):0.014831,(KEH157:0.036496,KEH063:0.056199):0.009309):0.003767):0.000000):0.001693,(((PS108:0.036500,((PS124:0.047175,PS047:0.036900):0.014295,((PS450:0.040468,1201:0.067270):0.011572,PS193:0.036022):0.006239):0.003353):0.002297,(((SK112:0.060137,J98M:0.030538):0.007759,(PS178:0.046820,J115M:0.024140):0.004779):0.004218,(KEH065:0.036106,2352:0.042448):0.008243):0.000000):0.003379,(PS056:0.048386,PS020:0.046627):0.010162):0.000000):0.003475):0.001691):0.001717,(((((((2098:0.025399,1194:0.055326):0.011028,(((SK192:0.050464,(PS144:0.057521,1117:0.025218):0.004015):0.011967,PS145:0.059338):0.004789,(PS053:0.005212,PS006:0.005143):0.009744):0.000241):0.002312,(2708:0.040004,1056:0.036201):0.011683):0.002243,(PS089:0.032915,((SK019:0.073836,PS183:0.054790):0.008203,SK038:0.057424):0.000551):0.008550):0.009011,(SK074:0.057596,KEH139:0.043753):0.006269):0.000000,((((SK211:0.051277,((SK092:0.067681,1160:0.037917):0.008513,(PS163:0.020056,KEH138:0.023975):0.003796):0.002709):0.002761,(PS036:0.063150,A866:0.045745):0.010597):0.002056,((((SK084:0.076943,(PS032:0.028756,A1109:0.059064):0.004146):0.009215,J37m:0.049043):0.006502,1232:0.023035):0.004408,(2705:0.051919,((PS451:0.043872,SK058:0.063086):0.006278,PS130:0.056847):0.004291):0.000378):0.004044):0.002438,(SK006:0.075943,PS367:0.044038):0.016874):0.006994):0.006209,(((PS123:0.049237,1175:0.037923):0.006031,2119:0.058361):0.003797,((PS214:0.070750,(PS438:0.012070,1195:0.051485):0.004302):0.005836,KEH150:0.046124):0.004449):0.004284):0.001785):0.005038,((((SK187:0.055724,(SK156:0.015335,SK144:0.043044):0.031813):0.020552,KEH018:0.033932):0.003185,(((1165:0.026636,PS152:0.084860):0.010296,SK066:0.061206):0.006192,((SK240:0.029541,SK204:0.064213):0.017352,(SK133:0.043956,2702:0.034570):0.010451):0.007150):0.002629):0.010111,((2648:0.021764,1213:0.023515):0.015938,2001:0.062267):0.016202):0.004439):0.003949,((SK083:0.084701,PS198:0.043316):0.011154,(PS392:0.057868,PS376:0.032223):0.032451):0.009935):0.005068,(A182:0.067051,(((((SK159:0.079066,(PS462:0.058405,2013:0.052235):0.022750):0.009686,PS095:0.048074):0.002732,((SK103:0.065566,SK078:0.014385):0.031914,PS428:0.058572):0.004602):0.004070,(((J66m:0.037317,J66C:0.019059):0.015261,((SK137:0.023002,SK117:0.015895):0.039694,(SK163:0.032515,SK135:0.058211):0.012428):0.002367):0.010713,(PS057:0.066129,PS051:0.036156):0.015134):0.005630):0.007796,((SK160:0.065481,PS202:0.043347):0.011370,1132:0.045371):0.000000):0.002201):0.006689):0.004261,(((SK193:0.050394,PS091:0.072929):0.010074,PS452:0.069214):0.009531,(SK067:0.035320,PS128:0.037156):0.018795):0.005500):0.002366,(SK033:0.059600,((SK191:0.073800,1135:0.058209):0.002775,(PS209:0.083189,((PS052:0.005243,A372:0.001587):0.036391,2195:0.053632):0.010657):0.005039):0.006423):0.004526):0.002113,((((((((((((PS054:0.039621,(PS189:0.071813,(PS166:0.032072,((SK223:0.042455,J112M:0.052668):0.007355,(PS350:0.051691,(PS125:0.044240,1062:0.028475):0.004262):0.007774):0.000565):0.001852):0.001698):0.005004,((PS192:0.030771,(PS024:0.000000,PS019:0.001737):0.011799):0.012049,PS015:0.047721):0.007124):0.002692,(SK005:0.064419,PS434:0.046706):0.006601):0.000000,((2006:0.026409,PS147:0.069633):0.005482,((PS134:0.028343,PS008:0.028520):0.005581,(SK086:0.056462,SK008:0.059670):0.016961):0.003368):0.005610):0.003957,((SK241:0.055187,SK107:0.047805):0.012677,SK201:0.058662):0.004522):0.004185,((SK082:0.042674,SK036:0.057474):0.020298,(PS116:0.066930,1171:0.061622):0.011738):0.008420):0.003082,(1158:0.031252,1137:0.018067):0.040209):0.004236,((((((PS197:0.059872,PS136:0.058642):0.009205,(SK169:0.063241,1152:0.040915):0.008027):0.004041,((987:0.042024,((2213:0.050784,2156:0.032082):0.005729,(SK085:0.053615,((PS381:0.077931,1116:0.015991):0.008401,SK132:0.059536):0.007466):0.001376):0.001853):0.004928,((SK065:0.052766,2706:0.032885):0.005267,A945:0.041606):0.013461):0.002036):0.005295,SK045:0.069918):0.001738,(((PS372:0.045505,(984:0.052344,2140:0.032343):0.011917):0.008415,(((((((SK226:0.042796,PS016:0.025367):0.009865,SK039:0.048650):0.000329,PS055:0.036128):0.005553,2528:0.025223):0.009148,(PS160:0.027166,((((SK012:0.097126,KEH111:0.052860):0.003060,1003:0.031743):0.002760,(2069:0.035435,1170:0.031148):0.009738):0.004391,SK245:0.056264):0.000634):0.000977):0.000000,1081:0.017455):0.003617,(PS094:0.042248,PS058:0.072483):0.005179):0.003084):0.004225,A1347:0.065572):0.006079):0.010682,((((SK174:0.053446,PS001:0.048901):0.008758,((SK184:0.072542,SK026:0.067848):0.008381,(SK128:0.047821,(PS174:0.042983,PS062:0.060041):0.008328):0.019970):0.005690):0.001756,(PS090:0.049417,1148:0.031056):0.010734):0.006568,((PS383:0.071300,((PS374:0.048136,(SK037:0.059216,1219:0.032603):0.010008):0.000000,(parv10:0.080228,PS158:0.071587):0.009285):0.009282):0.003344,(PS103:0.059308,J129:0.045520):0.007186):0.007214):0.005663):0.000000):0.005103,((SK024:0.032319,1119:0.085158):0.012150,((SK218:0.065803,1206:0.042515):0.003575,PS173:0.046140):0.002929):0.007246):0.005599,1207:0.061228):0.003698,((SK171:0.026398,SK167:0.026529):0.023640,PS049:0.062333):0.008643):0.001601,(PS195:0.091124,(PS411:0.059716,PS096:0.036755):0.005388):0.011617):0.003729):0.006372,(((PS044:0.069535,1297_4513:0.068163):0.011659,((((SK247:0.054878,PS169:0.047964):0.011580,(SK217:0.106046,((SK206:0.067690,1073:0.022813):0.021465,PS063:0.049524):0.023407):0.007743):0.004832,((((((SK152:0.037410,SK034:0.041301):0.013330,((SK148:0.048767,SK140:0.061234):0.009895,(SK073:0.051542,PS203:0.021276):0.006105):0.007043):0.006206,((PS048:0.071404,1203:0.030794):0.003197,(PS404:0.029288,PS370:0.046487):0.006378):0.009174):0.011528,KEH137:0.061931):0.002522,(PS004:0.057421,2389:0.061820):0.014178):0.003012,PS207:0.092403):0.004277):0.001785,(1097_4411:0.033613,0897_4271:0.054224):0.010287):0.005852):0.004465,(((PS059:0.068707,2199:0.048183):0.012182,(PS399:0.083521,PS201:0.066132):0.005729):0.000000,(((SK213:0.075675,SK059:0.078795):0.007961,(PS050:0.072231,PS030:0.064973):0.011326):0.000000,(2109:0.086068,SK202:0.063109):0.008009):0.002756):0.010656):0.003119):0.000000,(((((1296_3672:0.031939,1098_4997:0.033552):0.025511,(SK234:0.091695,1055:0.041422):0.004403):0.001489,(((1105:0.060151,PS083:0.055039):0.010265,(((parv23:0.068842,1178:0.051158):0.007432,(PS153:0.058731,2123:0.074073):0.008607):0.005106,((SK029:0.073545,PS390:0.056481):0.010000,2017:0.066644):0.002991):0.006111):0.003949,((PS159:0.062600,2652:0.095133):0.007343,1118:0.078045):0.008288):0.010743):0.006470,(SK172:0.086063,2588:0.092167):0.006456):0.012213,(((1226:0.010863,1153:0.015455):0.026407,(PS208:0.051625,1008:0.047969):0.016387):0.018962,((KEH162:0.083669,((SK098:0.076238,(((SK031:0.047770,PS180:0.041010):0.031583,SK002:0.037981):0.009048,PS067:0.070109):0.012494):0.006242,2016:0.030836):0.003602):0.004118,(((PS007:0.095021,(2116:0.043095,1200:0.045047):0.008939):0.002201,((SK232:0.042379,SK130:0.038527):0.041356,2638:0.039414):0.009859):0.006929,((((2622:0.062924,(1173:0.045445,(PS005:0.065496,PS043:0.054426):0.009593):0.005093):0.004498,(((((SK043:0.063409,1181:0.085293):0.010263,KEH171:0.073845):0.008701,(PS131:0.056000,2203:0.043447):0.013285):0.002249,2373:0.050308):0.002854,((SK136:0.046142,((PS185:0.039945,1057:0.019270):0.010970,((PS073:0.037110,PS194:0.047820):0.010010,(2730:0.033231,(SK052:0.051745,(1069:0.029221,KEH124:0.053994):0.006685):0.000639):0.004383):0.002610):0.001821):0.006198,PS426:0.055518):0.015993):0.000000):0.007513,0397_3901:0.081683):0.001173,(1214:0.073359,((PS009:0.035913,((SK170:0.043110,PS362:0.048845):0.006710,1043:0.036575):0.002141):0.010100,PS113:0.035138):0.032582):0.000000):0.001769):0.004102):0.000867):0.005397):0.005252):0.007311,(PS157:0.066466,991:0.043908):0.023534):0.000000,((((SK004:0.089727,SK176:0.056884):0.012263,2647:0.053407):0.001282,(SK224:0.046485,(SK143:0.010367,A1179:0.003427):0.072818):0.021567):0.003446,(((2446:0.050211,1140:0.062168):0.007272,(1184:0.037703,1156:0.033740):0.025568):0.002884,(2512:0.094106,1174:0.073473):0.012400):0.002714):0.002570):0.002543,((SK016:0.071120,(((SK150:0.069849,PS105:0.081031):0.005061,2651:0.064529):0.004903,(2344:0.041019,((PS085:0.077972,(((2695:0.047283,PS356:0.055323):0.007054,(SK142:0.065696,PS112:0.054752):0.013058):0.003752,2640:0.031265):0.003645):0.002142,(((SK111:0.054482,PS393:0.034902):0.004891,PS092:0.062125):0.001523,(SK134:0.079306,((SK196:0.084058,SK164:0.049738):0.015443,(SK181:0.063404,SK165:0.070188):0.005703):0.003118):0.004754):0.003644):0.003552):0.001948):0.006871):0.007058,PS171:0.056258):0.004616):0.003905,(SK173:0.078737,2142:0.066112):0.019336):0.010576,0998_4974:0.053490):0.064799,((((0799_5376:0.043564,(0298_4620:0.029623,0298_4617:0.031911):0.040789):0.008553,0797_4237:0.049659):0.005429,((0997_4338:0.042115,0499_5280:0.029105):0.011970,(1097_4370:0.038307,((0996_3424:0.052714,((((0398_4688:0.064331,(1096_3515:0.046019,(1296_3667:0.014157,0499_5279:0.036699):0.034380):0.003480):0.001465,1298_5082:0.069579):0.003158,(((1096_3433:0.004049,0697_4134:0.003197):0.046122,0799_5386:0.062736):0.015651,(1092_1273:0.049355,(0797_4190:0.018903,((0797_4199:0.007469,0398_4672:0.030781):0.007974,0397_3896:0.013306):0.003314):0.005109):0.006185):0.006539):0.003380,((0197_3794:0.025370,(0497_4002:0.043536,0598_4779:0.026538):0.010319):0.005691,(((((((((((1196_3601:0.013217,0197_3728:0.006833):0.001959,1198_5046:0.007150):0.026580,0498_4732:0.005525):0.013691,(0797_4191:0.009300,0697_4094:0.030764):0.025015):0.006732,(0797_4161:0.030670,(0197_3749:0.036954,(((1098_4994:0.007149,1096_3514:0.009305):0.000000,0799_5402:0.035897):0.009002,1098_5007:0.026025):0.035383):0.009372):0.006515):0.000000,(0696_3125:0.021011,0493_1804:0.035948):0.008532):0.004485,((((1197_4452:0.026634,(0597_4049:0.015197,0198_4561:0.015479):0.003292):0.007988,0499_5253:0.007594):0.024651,(1098_5021:0.028589,0696_3055:0.019181):0.000012):0.008792,0699_5357:0.055410):0.010115):0.001357,((1296_3723:0.055219,(0399_5215:0.024481,0198_4534:0.023753):0.017217):0.003467,((1096_3508:0.025222,0898_4911:0.040485):0.003712,((1198_5053:0.022732,0697_4159:0.011430):0.007435,(0598_4780:0.003493,0298_4610:0.011697):0.030175):0.013260):0.007839):0.004429):0.001831,((((0399_5203:0.051869,(0497_3995:0.014534,(((0697_4146:0.000000,(1096_3507:0.007494,0698_4816:0.022330):0.004323):0.000000,(0699_5336:0.012277,0599_5308:0.009489):0.016139):0.003603,(((((0698_4831:0.005137,0199_5126:0.000000):0.006771,0399_5201:0.001742):0.002912,((((((1198_5079:0.008503,0897_4265:0.019215):0.006881,0498_4708:0.006879):0.001869,0297_3835:0.004911):0.005454,(1298_5098:0.003981,0398_4630:0.002229):0.014805):0.005811,((0598_4803:0.003373,0497_3974:0.000000):0.006159,0398_4687:0.014569):0.006115):0.005255,0498_4712:0.030800):0.005713):0.007376,(0898_4915:0.000000,(0797_4203:0.000000,((0799_5392:0.014237,0797_4167:0.005214):0.001662,0399_5234:0.015625):0.000000):0.002257):0.004481):0.001684,((1297_4483:0.005380,(1198_5044:0.000000,0699_5335:0.000000):0.015320):0.005783,0699_5344:0.023831):0.008293):0.000000):0.011700):0.009445):0.001615,(0793_1937:0.037964,0196_2711:0.028534):0.012660):0.002568,((((((((1196_3576:0.024056,0398_4640:0.055640):0.005167,(((1298_5108:0.050057,0899_5422:0.023257):0.023295,(0897_4277:0.029949,0299_5179:0.014230):0.015036):0.002904,(((((((1198_5071:0.000000,0298_4616:0.000000):0.011631,0699_5350:0.019784):0.009760,0397_3900:0.024466):0.034158,((0799_5400:0.014206,0799_5371:0.028872):0.012762,0297_3846:0.036790):0.008549):0.001024,0797_4221:0.092402):0.009323,0497_3951:0.055567):0.005311,((1296_3700:0.042651,0797_4228:0.056945):0.008228,0697_4118:0.060720):0.003357):0.004797):0.007919):0.004296,(((1096_3513:0.021858,(1297_4520:0.033823,0996_3324:0.040067):0.008498):0.009044,0897_4281:0.016507):0.006174,(((((0996_3388:0.037007,0799_5395:0.027868):0.008521,((0896_3226:0.051592,(((1098_5034:0.002165,0699_5348:0.000000):0.014443,0398_4647:0.016298):0.058173,(0998_4961:0.001702,0898_4913:0.000000):0.039753):0.007176):0.003196,(((0998_4948:0.031484,(1096_3497:0.011807,0997_4309:0.054749):0.005935):0.001725,(0399_5218:0.034165,(((0496_2936:0.021198,0297_3845:0.040644):0.005054,(0897_4280:0.040847,0398_4661:0.036921):0.017239):0.000000,0797_4162:0.048319):0.004472):0.003973):0.007545,((((((0899_5423:0.032021,0798_4858:0.061432):0.006671,0598_4751:0.048170):0.005924,0597_4066:0.038315):0.005496,((1196_3593:0.040203,0697_4129:0.028980):0.016344,1096_3458:0.033763):0.004074):0.000256,0997_4327:0.053568):0.005564,(0796_3202:0.040767,(0499_5266:0.003778,0197_3725:0.004305):0.033599):0.012668):0.003725):0.002456):0.007835):0.000927,(((1198_5039:0.032023,0997_4345:0.033267):0.024367,0497_4009:0.017002):0.008184,0698_4839:0.029626):0.007863):0.001767,(0598_4802:0.035362,0598_4750:0.046691):0.015047):0.001129,((0397_3909:0.028071,1098_5035:0.035729):0.006142,(1198_5074:0.008524,0297_3868:0.019762):0.014031):0.008973):0.003391):0.002330):0.002251,(((1098_4988:0.010511,0297_3809:0.001691):0.034424,0799_5388:0.052783):0.013421,((1098_5013:0.047202,((0299_5175:0.031499,(((1198_5051:0.041777,1197_4419:0.038499):0.001334,(((((1197_4468:0.019231,0298_4615:0.003540):0.023144,0998_4981:0.025526):0.004978,((0298_4619:0.011909,(1098_5011:0.017761,0198_4526:0.010503):0.000000):0.005079,(1297_4523:0.013825,(0598_4797:0.020537,0398_4629:0.026173):0.000473):0.001710):0.001634):0.000000,(((((1098_5033:0.003594,1098_4995:0.004425):0.004279,(0299_5170:0.003477,(0697_4144:0.003485,((1097_4391:0.001860,0998_4945:0.005067):0.001851,((0398_4675:0.003343,0199_5150:0.006781):0.005291,(((0897_4275:0.005262,0797_4206:0.006808):0.001674,0896_3228:0.008947):0.001701,(0698_4848:0.013804,((0799_5408:0.021470,(0399_5227:0.009738,0299_5162:0.005109):0.003878):0.000000,0598_4804:0.000000):0.001479):0.003385):0.000000):0.003499):0.004774):0.000000):0.003369):0.005054,0598_4799:0.012487):0.000000,(((0699_5329:0.031894,(((0398_4667:0.005254,(0797_4165:0.010274,(0997_4294:0.000000,0699_5351:0.013904):0.006829):0.002537):0.002503,0299_5182:0.016000):0.003068,((0399_5222:0.014013,0297_3797:0.003235):0.008834,0398_4671:0.012476):0.005424):0.002103):0.003343,(1098_5028:0.000000,0499_5278:0.008862):0.008498):0.006450,0398_4668:0.012376):0.003917):0.000000,1296_3692:0.017532):0.001677):0.001667,(((0899_5427:0.014149,0499_5258:0.051549):0.004429,0899_5426:0.032494):0.000000,(((((1297_4500:0.000135,(0798_4896:0.000000,0798_4895:0.006721):0.000000):0.003303,1097_4415:0.017527):0.005248,(0299_5169:0.025955,(((((0998_4984:0.000000,0199_5139:0.000000):0.000000,0498_4733:0.001674):0.013750,0198_4547:0.010260):0.000000,0896_3292:0.001731):0.003186,1197_4443:0.005290):0.002076):0.006453):0.004964,(0796_3196:0.013769,((0499_5251:0.007088,0199_5147:0.013493):0.005707,0197_3784:0.005150):0.005015):0.000000):0.003341,(1298_5093:0.010806,(1196_3586:0.005506,0999_5467:0.015410):0.002185):0.007828):0.000000):0.000000):0.001680):0.008932,(1198_5049:0.002111,((1197_4461:0.017800,((((1197_4432:0.001751,0897_4276:0.005614):0.002784,(1198_5054:0.000000,1098_5022:0.005135):0.000000):0.006277,0498_4737:0.030645):0.002103,0896_3236:0.017835):0.006761):0.004646,1296_3681:0.000000):0.003934):0.002154):0.005276):0.001828,(0998_4979:0.036328,0497_4001:0.000000):0.009780):0.001007):0.003402,0497_4014:0.053326):0.002658):0.004229):0.001897,((((1097_4407:0.007991,0398_4655:0.012768):0.011101,(0498_4734:0.002227,0498_4721:0.001706):0.005251):0.004915,((1198_5050:0.006623,0399_5237:0.008647):0.011223,(0798_4864:0.008014,0399_5243:0.003522):0.003981):0.017442):0.031939,0797_4205:0.016972):0.006211):0.000920,((1096_3464:0.026003,0899_5416:0.010453):0.015678,0797_4211:0.033431):0.024544):0.003733,(((((0299_5161:0.005931,(0998_4985:0.031809,0898_4921:0.001799):0.000000):0.002959,((0998_4970:0.001703,0398_4686:0.000000):0.013005,(1296_3721:0.016059,0298_4597:0.006936):0.015257):0.006075):0.019136,0997_4330:0.015612):0.018419,0899_5412:0.003968):0.011816,(0998_4954:0.028044,0699_5332:0.069713):0.009996):0.007511):0.000000,((((0797_4172:0.027762,(((1297_4485:0.022046,0897_4279:0.069268):0.002275,(0899_5442:0.011449,0797_4180:0.000000):0.039605):0.004336,((0996_3374:0.005010,0797_4178:0.015617):0.032474,0797_4238:0.011920):0.031195):0.009350):0.001871,(0898_4930:0.053750,0497_3990:0.041360):0.020302):0.006198,(((((0799_5389:0.031242,0799_5380:0.064204):0.002745,(0996_3376:0.015576,0499_5268:0.032850):0.021821):0.003892,(0597_4056:0.051181,(((1296_3665:0.024582,(1297_4508:0.013921,0397_3904:0.010372):0.011929):0.003378,((1196_3621:0.005953,(1098_5008:0.023849,0499_5287:0.003470):0.005198):0.001719,0298_4596:0.008441):0.007866):0.005029,((((1098_5012:0.004691,0298_4608:0.001741):0.001882,(0299_5181:0.006965,0198_4528:0.003469):0.007247):0.002115,0298_4592:0.010651):0.006570,0498_4723:0.010511):0.018629):0.055429):0.004629):0.002074,((1196_3595:0.003477,0899_5410:0.003446):0.034381,1098_5025:0.040187):0.010424):0.001675,(1098_5009:0.043751,0996_3384:0.054327):0.011361):0.006433):0.001152,((1192_1535:0.059843,(0498_4736:0.033409,0397_3917:0.037008):0.006842):0.004840,((0799_5384:0.000000,0799_5377:0.000000):0.036236,0198_4527:0.034890):0.016830):0.001401):0.005773):0.001669):0.003874,((((0797_4210:0.045281,(((1299_5589:0.030242,1197_4458:0.031431):0.020150,0596_3011:0.039345):0.004626,0599_5305:0.050688):0.008500):0.006435,((0996_3357:0.037735,0699_5342:0.059548):0.013859,0499_5290:0.065917):0.000690):0.002105,(((((1196_3580:0.059787,(0499_5291:0.033900,0298_4621:0.038663):0.019288):0.003309,(1096_3450:0.019701,0697_4158:0.065389):0.006135):0.004731,((1298_5087:0.032725,0898_4923:0.014254):0.034097,0996_3422:0.053970):0.013836):0.002771,(1197_4420:0.035726,(0599_5316:0.043366,0498_4701:0.018742):0.011478):0.005039):0.005216,(((((((((0199_5146:0.001866,0199_5129:0.000000):0.017411,(1198_5080:0.023948,0197_3737:0.013935):0.003544):0.008000,0496_2895:0.001513):0.047926,0899_5414:0.051413):0.005790,0899_5444:0.014169):0.006242,(0699_5346:0.060173,(0297_3848:0.037208,0198_4576:0.041640):0.017029):0.010152):0.008534,0899_5429:0.019438):0.003533,0498_4709:0.059786):0.003324,0598_4800:0.056706):0.003019):0.001663):0.003680,((0599_5299:0.040421,0499_5282:0.049936):0.008035,((0996_3312:0.040255,0397_3926:0.053190):0.006277,((((0898_4926:0.052806,(0996_3427:0.029925,(0499_5249:0.000000,0299_5196:0.000000):0.053005):0.007404):0.007791,(0898_4907:0.058502,0699_5339:0.047107):0.009532):0.000000,(0997_4343:0.047775,(((1197_4453:0.030884,0498_4726:0.033076):0.010776,0598_4791:0.048345):0.009115,0397_3898:0.062525):0.006359):0.002954):0.002357,(0399_5224:0.035790,(0897_4272:0.054846,0798_4882:0.069168):0.004988):0.002677):0.000000):0.001233):0.001717):0.001693):0.001668):0.000000,(((((((0897_4257:0.012994,((0996_3405:0.003354,0697_4085:0.006145):0.011722,(1297_4497:0.005123,0896_3268:0.004134):0.012845):0.004035):0.012553,(1096_3460:0.041519,0997_4336:0.029729):0.010849):0.006017,0996_3383:0.030502):0.003460,((0897_4249:0.034026,(0597_4050:0.066455,0399_5248:0.023779):0.020289):0.004894,0797_4222:0.020894):0.004045):0.000000,((((0795_2386:0.028921,((((1197_4463:0.056788,0399_5245:0.022953):0.017781,(0899_5419:0.032891,0799_5404:0.019487):0.009382):0.017348,(0396_2847:0.017641,0199_5121:0.043788):0.011195):0.002452,(0797_4204:0.049615,0699_5319:0.023018):0.004769):0.004459):0.005509,(((((1298_5116:0.005515,0599_5302:0.001859):0.016683,0399_5242:0.031628):0.015480,(((0399_5199:0.016202,1099_5497:0.009602):0.001706,1196_3562:0.001773):0.008776,0898_4914:0.021989):0.038278):0.007685,1096_3517:0.019701):0.005250,(((((((1299_5590:0.011839,0899_5440:0.001692):0.000000,1098_5024:0.001690):0.019567,1298_5105:0.022482):0.018501,1097_4384:0.034203):0.014238,1296_3657:0.045479):0.005146,((0997_4342:0.049137,0797_4200:0.031293):0.007905,(1096_3551:0.054636,(1196_3609:0.024760,(0597_4019:0.000000,0297_3827:0.016618):0.012743):0.033825):0.000131):0.001652):0.001765,((((((1196_3574:0.032337,0798_4885:0.039587):0.014465,0797_4173:0.020214):0.002787,((0397_3942:0.061428,0397_3946:0.047526):0.000000,0996_3375:0.048782):0.009817):0.002626,(0897_4241:0.059573,0597_4060:0.027671):0.010701):0.004997,1095_2535:0.042257):0.002906,((((1196_3633:0.016255,0797_4177:0.068732):0.007818,((0897_4278:0.030123,0999_5472:0.053677):0.004731,(1298_5101:0.000000,1297_4472:0.007972):0.050481):0.005623):0.007075,0996_3387:0.034353):0.001263,((((1299_5584:0.007859,0797_4166:0.012642):0.032207,0999_5458:0.045356):0.008475,(1296_3669:0.004130,0697_4136:0.015497):0.028089):0.008222,1198_5066:0.058927):0.005795):0.001973):0.001215):0.000000):0.005313):0.000000,((0996_3396:0.046988,(0598_4798:0.033445,(0797_4230:0.042655,0399_5214:0.026220):0.006672):0.002838):0.013946,0797_4212:0.021664):0.007247):0.001265,(1096_3485:0.066635,0698_4849:0.026627):0.010711):0.001758):0.000000,((((0697_4083:0.000598,0398_4653:0.019684):0.032800,((0997_4319:0.018498,0798_4893:0.023525):0.010412,0298_4623:0.015596):0.011603):0.011593,(0297_3867:0.030981,(0299_5176:0.024863,(0798_4901:0.056494,((0495_161:0.024832,0299_5177:0.028608):0.005340,0898_4922:0.059761):0.007278):0.008795):0.010168):0.004514):0.000000,(((((0399_5205:0.051194,(0598_4753:0.035195,1297_4482:0.038592):0.006690):0.004414,0297_3864:0.031364):0.001782,(1198_5073:0.028352,0199_5152:0.047731):0.013897):0.001920,(((((1297_4491:0.001535,(0599_5313:0.012237,0499_5270:0.005098):0.002209):0.033785,0997_4357:0.007711):0.010724,(((((1198_5081:0.013368,0199_5159:0.012932):0.002158,(0697_4149:0.009217,(0896_3249:0.013872,0597_4025:0.000000):0.001475):0.001756):0.025572,0698_4841:0.036308):0.004280,((((0398_4657:0.006057,0698_4850:0.006847):0.005076,(1097_4364:0.021119,(((1197_4428:0.013325,1197_4427:0.001536):0.008020,0598_4754:0.011552):0.013659,1196_3629:0.016663):0.006301):0.000000):0.010481,0299_5174:0.038246):0.016239,(1096_3467:0.029495,0697_4122:0.056172):0.006933):0.002663):0.003352,(PS045:0.088965,0499_5256:0.056936):0.020704):0.002513):0.007510,0398_4689:0.020804):0.000732,((0797_4232:0.048514,0299_5191:0.017034):0.018864,(((0997_4333:0.026057,(0697_4156:0.016159,0197_3780:0.042235):0.003541):0.005976,(((0198_4578:0.046753,(0898_4905:0.054530,0397_3950:0.002838):0.002583):0.005285,0397_3915:0.032513):0.001834,((1098_4998:0.000000,0398_4650:0.000000):0.017067,((1197_4456:0.016703,0697_4116:0.018433):0.005953,0799_5396:0.017902):0.006542):0.001904):0.001771):0.001635,((1097_4390:0.026826,((0299_5180:0.020570,0199_5138:0.018854):0.027841,(0994_483:0.010307,0498_4699:0.021797):0.041167):0.009007):0.004197,((((1297_4498:0.001795,0397_3910:0.000000):0.026220,0397_3914:0.012764):0.014809,0797_4236:0.002035):0.022947,(1298_5085:0.035516,0698_4825:0.012412):0.005249):0.000000):0.005124):0.000000):0.001684):0.000000):0.001661,((0998_4969:0.040662,0897_4245:0.030424):0.005300,(1296_3655:0.024284,((1297_4469:0.027488,(1197_4450:0.000000,1197_4436:0.001669):0.033280):0.006869,(1296_3704:0.002850,1096_3451:0.021491):0.008225):0.008053):0.000425):0.004731):0.001717):0.001684):0.001674,((((((1096_3443:0.036040,((0397_3890:0.012618,0393_1663:0.000000):0.004083,0198_4535:0.009105):0.031135):0.013334,0697_4115:0.073122):0.006804,(1198_5057:0.038829,((0697_4154:0.024375,0297_3826:0.024222):0.014886,0399_5236:0.003939):0.014367):0.017916):0.001831,(1096_3534:0.032391,1297_4484:0.008060):0.006521):0.003813,((0499_5286:0.046391,0599_5312:0.066392):0.003059,(((1198_5075:0.032110,0998_4978:0.002336):0.034266,0199_5154:0.060605):0.007795,(0999_5459:0.068791,(0899_5431:0.069354,0398_4658:0.024047):0.011582):0.009064):0.003112):0.005394):0.001559,0998_4975:0.027117):0.001774):0.000000):0.000000,((((0996_3344:0.029223,(0898_4931:0.019975,0897_4262:0.018408):0.006509):0.001999,(0998_4943:0.037285,0697_4090:0.041714):0.011779):0.011446,(((0797_4189:0.050708,0198_4581:0.036035):0.009305,((0499_5272:0.035693,(0695_74:0.021942,1197_4418:0.022619):0.005484):0.036530,0996_3346:0.036682):0.001371):0.002170,((0797_4202:0.028755,((0999_5461:0.046801,0498_4715:0.038242):0.009602,0698_4821:0.032153):0.008310):0.001014,((0998_4946:0.048797,0799_5374:0.038405):0.006680,((1096_3487:0.024772,1096_3483:0.032638):0.009082,0597_4069:0.032913):0.000668):0.005304):0.001782):0.001623):0.002358,(((0797_4175:0.040643,(0899_5439:0.032837,0697_4141:0.025150):0.011244):0.002181,1296_3724:0.026620):0.007440,((0896_3225:0.006023,0199_5148:0.031027):0.011603,0397_3947:0.025391):0.006859):0.007082):0.001195):0.000000):0.003919):0.004008):0.002411,(((1096_3480:0.037286,((((((1096_3518:0.003904,0899_5420:0.007154):0.034703,0797_4217:0.038764):0.006183,1196_3597:0.034827):0.005767,(1198_5067:0.041782,1096_3499:0.021973):0.008046):0.001398,(((0797_4216:0.039730,((0398_4632:0.021783,0697_4107:0.003942):0.002320,0299_5160:0.053157):0.000000):0.002862,((0996_3417:0.021144,0699_5326:0.035931):0.004437,0998_4965:0.029621):0.003910):0.001681,((0799_5375:0.049131,((1297_4490:0.034066,0297_3850:0.058947):0.002574,0997_4293:0.019507):0.003239):0.002393,0297_3860:0.036832):0.001838):0.000000):0.005191,0897_4242:0.038540):0.003667):0.001364,0697_4114:0.055895):0.011740,((1196_3606:0.009186,((0799_5390:0.014826,0996_3395:0.010147):0.003102,(0997_4324:0.005731,0198_4541:0.004602):0.005137):0.001941):0.023609,0996_3366:0.009362):0.033559):0.006280):0.002934):0.009343):0.007138):0.027770,0398_4690:0.096978):0.084165):0.027026,2635:0.112353):0.048703,0999_5479:0.093612):0.053975,0299_5173:0.059414):0.007739,SK162:0.098396):0.010265,(SK119:0.104947,(0699_5352:0.054414,0499_5252:0.062446):0.020926):0.017141):0.085644,0399_5235:0.046229):0.007962,1098_4987:0.010921,0597_4073:0.040376)::;